Place,Name,Sex,Age,BirthDate,Country,State,Equipment,Division,BodyweightKg,WeightClassKg,Squat1Kg,Squat2Kg,Squat3Kg,Best3SquatKg,Bench1Kg,Bench2Kg,Bench3Kg,Best3BenchKg,Deadlift1Kg,Deadlift2Kg,Deadlift3Kg,Best3DeadliftKg,TotalKg,Event
1,Emma Albaum,F,23,,,,Raw,Juniors,56.26,57,-65,70,-75,70,32.5,-37.5,-37.5,32.5,70,-77.5,77.5,77.5,180,SBD
1,Maggie Quesnel,F,20,,,,Raw,Juniors,61.81,63,112.5,120,135,135,47.5,55,-62.5,55,130,150,-160,150,340,SBD
1,Anne Marie Campeau,F,19,,,,Raw,Juniors,68.83,69,145,-160,-160,145,65,72.5,80,80,147.5,157.5,167.5,167.5,392.5,SBD
1,Hannah Rajput,F,21,,,,Raw,Juniors,74.57,76,-135,135,145,145,75,77.5,80,80,165,175,-185,175,400,SBD
1,Rylee Mancuso,F,22,,,,Raw,Juniors,79.73,84,97.5,105,112.5,112.5,45,-52.5,-52.5,45,110,117.5,125,125,282.5,SBD
1,Gabriella Sebrango,F,23,,,,Raw,Juniors,97.26,84+,145,157.5,167.5,167.5,67.5,75,-80,75,160,172.5,182.5,182.5,425,SBD
2,Hadeeqa Aziz,F,21,,,,Raw,Juniors,96.39,84+,87.5,95,105,105,57.5,-65,-65,57.5,137.5,147.5,157.5,157.5,320,SBD
1,Parker Morrison,F,17,,,,Raw,Sub-Juniors,71.87,76,110,120,125,125,65,70,72.5,72.5,105,115,125,125,322.5,SBD
1,Nyla Osfolk,F,16,,,,Raw,Sub-Juniors,81.89,84,110,120,-122.5,120,45,50,-52.5,50,112.5,120,125,125,295,SBD
1,Aziz Galal,M,22,,,,Raw,Juniors,72.24,74,155,-165,165,165,80,90,-100,90,170,180,195,195,450,SBD
1,Zachary Bint,M,22,,,,Raw,Juniors,80.84,83,165,190,212.5,212.5,115,122.5,-130,122.5,205,217.5,227.5,227.5,562.5,SBD
2,Daniel Goutor,M,22,,,,Raw,Juniors,82.92,83,172.5,180,185,185,115,120,125,125,200,210,220,220,530,SBD
3,Mitchell Godden,M,19,,,,Raw,Juniors,78.27,83,-140,150,160,160,80,-95,-95,80,215,245,-250,245,485,SBD
1,Argie Sugue,M,19,,,,Raw,Juniors,90.95,93,175,180,185,185,130,137.5,142.5,142.5,220,225,230,230,557.5,SBD
1,Matthew Hudson,M,15,,,,Raw,Sub-Juniors,61.73,66,80,90,105,105,67.5,77.5,-82.5,77.5,130,147.5,-155,147.5,330,SBD
1,Francis Fostanes,M,16,,,,Raw,Sub-Juniors,100.15,105,190,195,205,205,95,100,115,115,205,215,-225,215,535,SBD
1,Prince Callos,M,16,,,,Raw,Sub-Juniors,73.52,74,165,175,-182.5,175,92.5,-100,100,100,222.5,235,240,240,515,SBD
1,Ezra Hewitt,M,17,,,,Raw,Sub-Juniors,110.1,120,180,185,192.5,192.5,-125,125,-137.5,125,180,190,-200,190,507.5,SBD
1,Sammy Sidi,M,13,,,,Raw,Youth 3,89.31,93,65,75,-85,75,90,97.5,102.5,102.5,100,112.5,122.5,122.5,300,SBD
1,Jessica Wuerth,F,25,,,,Raw,Open,48.6,52,85,90,-95,90,50,55,57.5,57.5,85,90,95,95,242.5,SBD
1,Katie Greiss,F,29,,,,Raw,Open,59.8,63,97.5,102.5,107.5,107.5,62.5,67.5,72.5,72.5,132.5,140,145,145,325,SBD
1,Amy Bell,F,24,,,,Raw,Open,66.43,69,105,115,125,125,57.5,62.5,67.5,67.5,135,142.5,150,150,342.5,SBD
2,Jess Mazzonello,F,27,,,,Raw,Open,63.87,69,112.5,117.5,122.5,122.5,40,45,50,50,142.5,147.5,155,155,327.5,SBD
3,Danika Bolger,F,24,,,,Raw,Open,67.68,69,60,70,-82.5,70,-27.5,27.5,37.5,37.5,102.5,105,112.5,112.5,220,SBD
1,Alyssa Tisson,F,24,,,,Raw,Open,73.09,76,132.5,140,145,145,65,70,72.5,72.5,150,160,167.5,167.5,385,SBD
2,Laura Scott,F,29,,,,Raw,Open,70.13,76,117.5,120,-127.5,120,67.5,70,-72.5,70,142.5,150,-157.5,150,340,SBD
3,Kasia Wisniewski,F,24,,,,Raw,Open,74.47,76,120,125,130,130,57.5,60,-62.5,60,142.5,-147.5,-147.5,142.5,332.5,SBD
4,Shannon Graszat,F,37,,,,Raw,Open,73.2,76,-117.5,117.5,122.5,122.5,52.5,55,57.5,57.5,130,142.5,-165,142.5,322.5,SBD
5,Sandy Arvanitis,F,25,,,,Raw,Open,74.08,76,97.5,105,110,110,50,55,-60,55,122.5,130,135,135,300,SBD
1,Alex Gristey,F,24,,,,Raw,Open,81.56,84,157.5,167.5,175,175,72.5,77.5,80,80,175,187.5,190,190,445,SBD
2,Caroline Pellerin,F,27,,,,Raw,Open,79.86,84,137.5,145,150,150,75,80,82.5,82.5,142.5,152.5,160,160,392.5,SBD
1,Sarah Lawson,F,32,,,,Raw,Open,100.98,84+,132.5,147.5,157.5,157.5,65,70,-72.5,70,167.5,185,-190,185,412.5,SBD
2,Melissa Lemire,F,25,,,,Raw,Open,98.08,84+,142.5,150,155,155,82.5,87.5,92.5,92.5,152.5,162.5,-177.5,162.5,410,SBD
3,Nicole Ross,F,33,,,,Raw,Open,116.93,84+,147.5,155,160,160,90,95,-97.5,95,125,135,142.5,142.5,397.5,SBD
4,Sidney Cameron,F,29,,,,Raw,Open,96.43,84+,135,150,-157.5,150,67.5,-72.5,-72.5,67.5,150,162.5,172.5,172.5,390,SBD
1,Sophia Akhavan-Zanjani,F,39,,,,Raw,Open,77.97,84,130,135,137.5,137.5,72.5,75,77.5,77.5,150,157.5,162.5,162.5,377.5,SBD
1,Zartaj Bahadur,F,46,,,,Raw,Masters 1,67.16,69,70,75,82.5,82.5,52.5,55,-60,55,105,110,115,115,252.5,SBD
1,Jessica Rousseau,F,41,,,,Raw,Masters 1,83.35,84,97.5,105,112.5,112.5,50,55,60,60,110,117.5,-125,117.5,290,SBD
1,Stephanie Gingras,F,45,,,,Raw,Masters 1,98.9,84+,117.5,127.5,137.5,137.5,77.5,85,-90,85,140,152.5,-165,152.5,375,SBD
2,Melissa Montgomery,F,42,,,,Raw,Masters 1,110.3,84+,115,120,125,125,-57.5,-60,60,60,140,150,157.5,157.5,342.5,SBD
1,Terri Johnston,F,56,,,,Raw,Masters 2,62.26,63,75,80,-85,80,40,-45,-45,40,97.5,-105,-110,97.5,217.5,SBD
1,Marija Graham,F,53,,,,Raw,Masters 2,83.34,84,135,145,155,155,57.5,62.5,65,65,155,165,176,176,396,SBD
1,Sarah Ofield,F,50,,,,Raw,Masters 2,61.21,63,92.5,97.5,102.5,102.5,52.5,-55,55,55,110,117.5,122.5,122.5,280,SBD
1,Karen Marchetti,F,56,,,,Raw,Masters 2,68.61,69,70,75,80,80,42.5,47.5,-52.5,47.5,95,100,105,105,232.5,SBD
1,Shannon Terry,F,49,,,,Raw,Masters 2,88.47,84+,85,100,110,110,85,-90,-90,85,115,125,-140,125,320,SBD
2,Carol Taylor-Wilks,F,58,,,,Raw,Masters 2,113.5,84+,-85,85,100,100,55,60,-62.5,60,92.5,100,102.5,102.5,262.5,SBD
1,Martin Olszewski,M,43,,,,Raw,Masters 1,88.85,93,142.5,155,167.5,167.5,87.5,95,-100,95,162.5,175,190,190,452.5,SBD
1,Jeff Merk,M,45,,,,Raw,Masters 1,99.22,105,195,-200,-200,195,-110,110,-112.5,110,-235,235,-240,235,540,SBD
1,Umut Ozsu,M,45,,,,Raw,Masters 1,113.16,120,-170,177.5,-192.5,177.5,-105,107.5,115,115,217.5,237.5,265,265,557.5,SBD
1,David Mclauchlan,M,61,,,,Raw,Masters 3,108.42,120,140,150,155,155,120,125,130,130,185,195,205,205,490,SBD
1,Muhammadsadiq Bakaa,M,23,,,,Raw,Open,73.51,74,165,-175,185,185,130,140,-142.5,140,195,205,-215,205,530,SBD
1,Edward Macias,M,25,,,,Raw,Open,79.3,83,135,140,145,145,90,95,97.5,97.5,155,-160,165,165,407.5,SBD
DQ,Graham Cox,M,27,,,,Raw,Open,79.11,83,-190,-197.5,-197.5,,-97.5,,,,,,,,,SBD
1,Jake Currie,M,25,,,,Raw,Open,91.23,93,170,177.5,-195,177.5,135,140,-145,140,210,217.5,225,225,542.5,SBD
1,Jolan Taylor,M,33,,,,Raw,Open,100.89,105,195,207.5,215,215,120,-125,-125,120,230,250,260,260,595,SBD
1,Kevin Prommawonsee,M,30,,,,Raw,Open,57.72,59,167.5,177.5,185,185,100,107.5,-115,107.5,190,200,207.5,207.5,500,SBD
1,Zackery Liberty,M,28,,,,Raw,Open,64.82,66,-140,140,150,150,97.5,105,115,115,175,185,192.5,192.5,457.5,SBD
1,Jonathon Artale,M,38,,,,Raw,Open,73.89,74,172.5,180,185,185,125,127.5,-130,127.5,215,225,227.5,227.5,540,SBD
2,Ryan Bak,M,23,,,,Raw,Open,73.19,74,170,177.5,185,185,127.5,132.5,-135,132.5,210,220,-227.5,220,537.5,SBD
3,Mitchell Garlick,M,26,,,,Raw,Open,73.07,74,172.5,180,185,185,107.5,112.5,115,115,202.5,212.5,-217.5,212.5,512.5,SBD
1,Owen Bennett #1,M,25,,,,Raw,Open,81.04,83,217.5,227.5,235,235,132.5,140,145,145,270,282.5,-287.5,282.5,662.5,SBD
2,Nick LeGrow,M,24,,,,Raw,Open,80.68,83,-155,155,-170,155,-105,105,110,110,190,192.5,,192.5,457.5,SBD
3,Nigel Ecock,M,32,,,,Raw,Open,81.18,83,137.5,142.5,150,150,87.5,92.5,-100,92.5,177.5,185,192.5,192.5,435,SBD
1,Zachary Kerr,M,26,,,,Raw,Open,90.6,93,197.5,207.5,-217.5,207.5,120,125,130,130,205,215,225,225,562.5,SBD
2,Douglas Kisitu,M,32,,,,Raw,Open,90.48,93,150,157.5,-165,157.5,110,120,-125,120,205,-215,225,225,502.5,SBD
3,Sam Barnard,M,29,,,,Raw,Open,87.82,93,132.5,-145,-150,132.5,85,90,-95,90,150,162.5,170,170,392.5,SBD
DQ,Ryan Perry,M,30,,,,Raw,Open,90,93,-217.5,-217.5,-217.5,,127.5,132.5,-137.5,132.5,262.5,280,-287.5,280,,SBD
DQ,Shivansh Salwan,M,26,,,,Raw,Open,92.05,93,-170,-182.5,-182.5,,130,-137.5,140,140,185,197.5,210,210,,SBD
1,Ben Dietze,M,27,,,,Raw,Open,98.05,105,230,245,255,255,140,147.5,-152.5,147.5,270,295,320,320,722.5,SBD
